[0916/101034.085:ERROR:registration_protocol_win.cc(103)] CreateFile: El sistema no puede encontrar el archivo especificado. (0x2)
[0918/123947.946:ERROR:registration_protocol_win.cc(103)] CreateFile: El sistema no puede encontrar el archivo especificado. (0x2)
[0922/081325.122:ERROR:registration_protocol_win.cc(103)] CreateFile: El sistema no puede encontrar el archivo especificado. (0x2)
[0922/081334.159:ERROR:registration_protocol_win.cc(103)] CreateFile: El sistema no puede encontrar el archivo especificado. (0x2)
[0922/081511.717:ERROR:registration_protocol_win.cc(103)] CreateFile: El sistema no puede encontrar el archivo especificado. (0x2)
[0922/081516.641:ERROR:registration_protocol_win.cc(103)] CreateFile: El sistema no puede encontrar el archivo especificado. (0x2)
[0922/081521.590:ERROR:registration_protocol_win.cc(103)] CreateFile: El sistema no puede encontrar el archivo especificado. (0x2)
[0922/200206.833:ERROR:registration_protocol_win.cc(103)] CreateFile: El sistema no puede encontrar el archivo especificado. (0x2)
[0922/205121.006:ERROR:registration_protocol_win.cc(103)] CreateFile: El sistema no puede encontrar el archivo especificado. (0x2)
[0922/220629.753:ERROR:registration_protocol_win.cc(103)] CreateFile: El sistema no puede encontrar el archivo especificado. (0x2)
[0922/220633.125:ERROR:registration_protocol_win.cc(103)] CreateFile: El sistema no puede encontrar el archivo especificado. (0x2)
[0924/110142.536:ERROR:registration_protocol_win.cc(103)] CreateFile: El sistema no puede encontrar el archivo especificado. (0x2)
[0924/125937.363:ERROR:registration_protocol_win.cc(103)] CreateFile: El sistema no puede encontrar el archivo especificado. (0x2)
[0924/202904.313:ERROR:registration_protocol_win.cc(103)] CreateFile: El sistema no puede encontrar el archivo especificado. (0x2)
[0925/212258.933:ERROR:registration_protocol_win.cc(103)] CreateFile: El sistema no puede encontrar el archivo especificado. (0x2)
